Measures of Association
…
dat.tab05 <- dat.df05 %>%
  mutate(low = factor(low, levels = c(1,0), labels = c("yes","no"))) %>%
  mutate(smoke = factor(smoke, levels = c(1,0), labels = c("yes","no"))) %>%
  mutate(race = factor(race)) %>%
  group_by(race, smoke, low) %>%
  summarise(n = n()) 
#> `summarise()` has grouped output by 'race', 'smoke'. You can override using the `.groups` argument.
dat.tab05
#> # A tibble: 12 x 4
#> # Groups:   race, smoke [6]
#>   race  smoke low       n
#>   <fct> <fct> <fct> <int>
#> 1 1     yes   yes      19
#> 2 1     yes   no       33
#> 3 1     no    yes       4
#> 4 1     no    no       40
#> # ... with 8 more rows

## View the data in conventional 2 by 2 table format:
pivot_wider(dat.tab05, id_cols = c(race, smoke), 
   names_from = low, values_from = n)
#> # A tibble: 6 x 4
#> # Groups:   race, smoke [6]
#>   race  smoke   yes    no
#>   <fct> <fct> <int> <int>
#> 1 1     yes      19    33
#> 2 1     no        4    40
#> 3 2     yes       6     4
#> 4 2     no        5    11
#> # ... with 2 more rows
…
